<?xml version="1.0"?>
<svg xmlns="http://www.w3.org/2000/svg" xmlns:xlink="http://www.w3.org/1999/xlink" version="1.1" id="Capa_1" x="0px" y="0px" width="512px" height="512px" viewBox="0 0 544.68 544.68" style="enable-background:new 0 0 544.68 544.68;" xml:space="preserve"><g><g>
	<g>
		<path d="M497.947,225.607H385.162l79.75-79.75c18.249-18.25,18.249-47.84,0-66.09c-18.25-18.25-47.841-18.25-66.09,0l-79.75,79.75    V46.732C319.072,20.924,298.147,0,272.34,0c-25.808,0-46.732,20.924-46.732,46.732v112.785l-79.75-79.75    c-18.25-18.25-47.84-18.25-66.09,0c-18.25,18.25-18.25,47.84,0,66.09l79.75,79.75H46.732C20.924,225.607,0,246.532,0,272.34    c0,25.808,20.924,46.732,46.732,46.732h112.786l-79.75,79.75c-18.25,18.249-18.25,47.84,0,66.09c18.25,18.25,47.84,18.25,66.09,0    l79.75-79.75v112.785c0,25.809,20.924,46.732,46.732,46.732c25.808,0,46.732-20.924,46.732-46.732V385.162l79.75,79.75    c18.249,18.249,47.84,18.249,66.09,0c18.25-18.25,18.25-47.841,0-66.09l-79.75-79.75h112.785    c25.809,0,46.732-20.925,46.732-46.732C544.68,246.532,523.756,225.607,497.947,225.607z" data-original="#ffffff" class="active-path" fill="#ffffff"/>
	</g>
</g></g> </svg>
